Creating Plots- Layer by Layer
…
count: false
 
Bubble Diagram
.panel1-bubble-auto[

```r
*df_nfhs_5
```
]
 
.panel2-bubble-auto[

```
# A tibble: 22 x 17
    Year Source State State.Code GDP_Per_Capita_…   Area Population_Lakhs
   <int> <fct>  <chr> <chr>                 <int>  <int>            <dbl>
 1  2020 NFHS-5 Anda… AN                      199   8073              3.9
 2  2020 NFHS-5 Andh… AP                      151 160205            497. 
 3  2020 NFHS-5 Assam AS                       82  79000            310. 
 4  2020 NFHS-5 Bihar BR                       40  94163            990. 
 5  2020 NFHS-5 Dadr… DD                       NA     NA             NA  
 6  2020 NFHS-5 Goa   GA                      430   3702             18.2
 7  2020 NFHS-5 Guja… GJ                      195 196024            627. 
 8  2020 NFHS-5 Hima… HP                      183  55673             68.6
 9  2020 NFHS-5 Jamm… JK                      102 222236            126. 
10  2020 NFHS-5 Karn… KA                      206 191791            641. 
# … with 12 more rows, and 10 more variables:
#   GDP_Per_Capita_2016_in_thousands <int>, IMR <dbl>, Caesarean_section <dbl>,
#   Immunization_Full <dbl>, Immunization_BCG <dbl>, Stunting_U5 <dbl>,
#   Wasting_U5 <dbl>, Underweight_U5 <dbl>, IMR_Level <fct>,
#   State_Population_Cat <chr>
```
…
count: false
 
Box Plot
.panel1-box-auto[

```r
*df_nfhs_5
```
]
 
.panel2-box-auto[

```
# A tibble: 22 x 17
    Year Source State State.Code GDP_Per_Capita_…   Area Population_Lakhs
   <int> <fct>  <chr> <chr>                 <int>  <int>            <dbl>
 1  2020 NFHS-5 Anda… AN                      199   8073              3.9
 2  2020 NFHS-5 Andh… AP                      151 160205            497. 
 3  2020 NFHS-5 Assam AS                       82  79000            310. 
 4  2020 NFHS-5 Bihar BR                       40  94163            990. 
 5  2020 NFHS-5 Dadr… DD                       NA     NA             NA  
 6  2020 NFHS-5 Goa   GA                      430   3702             18.2
 7  2020 NFHS-5 Guja… GJ                      195 196024            627. 
 8  2020 NFHS-5 Hima… HP                      183  55673             68.6
 9  2020 NFHS-5 Jamm… JK                      102 222236            126. 
10  2020 NFHS-5 Karn… KA                      206 191791            641. 
# … with 12 more rows, and 10 more variables:
#   GDP_Per_Capita_2016_in_thousands <int>, IMR <dbl>, Caesarean_section <dbl>,
#   Immunization_Full <dbl>, Immunization_BCG <dbl>, Stunting_U5 <dbl>,
#   Wasting_U5 <dbl>, Underweight_U5 <dbl>, IMR_Level <fct>,
#   State_Population_Cat <chr>
```
…
